<svg width="29.500000" height="12.354980" viewBox="0 0 29.5 12.355" fill="none" xmlns="http://www.w3.org/2000/svg" xmlns:xlink="http://www.w3.org/1999/xlink">
	<desc>
			Created with Pixso.
	</desc>
	<defs/>
	<g opacity="0.500000">
		<path id="Union" d="M5.61133 0L0 6.17749L1 7.27832L1 7.35107L1.06641 7.35107L5.61133 12.355L7.0918 11.0085L3.76855 7.35107L29.5 7.35107L29.5 5.35107L3.45312 5.35107L7.0918 1.34644L5.61133 0Z" fill="#ED4D47" fill-opacity="1.000000" fill-rule="nonzero"/>
	</g>
</svg>
