<svg width="36.000000" height="36.000000" viewBox="0 0 36 36" fill="none" xmlns="http://www.w3.org/2000/svg" xmlns:xlink="http://www.w3.org/1999/xlink">
	<desc>
			Created with Pixso.
	</desc>
	<defs/>
	<circle id="Ellipse 46" cx="18.000000" cy="18.000000" r="18.000000" fill="#ED4D47" fill-opacity="1.000000"/>
	<path id="twitter" d="M17.9092 14.6592L17.8701 14.0073C17.751 12.3188 18.7939 10.7759 20.4434 10.1777C21.0508 9.96484 22.0801 9.93848 22.7539 10.1245C23.0176 10.2041 23.5195 10.4702 23.876 10.7095L24.5225 11.1484L25.2354 10.9224C25.6309 10.8027 26.1592 10.603 26.3965 10.4702C26.6211 10.3506 26.8193 10.2842 26.8193 10.3237C26.8193 10.5498 26.3311 11.3213 25.9219 11.7471C25.3672 12.3452 25.5254 12.3984 26.6475 11.9995C27.3203 11.7734 27.334 11.7734 27.2021 12.0259C27.123 12.1592 26.7139 12.6245 26.2783 13.0503C25.5391 13.7817 25.499 13.8613 25.499 14.4731C25.499 15.417 25.0508 17.3853 24.6016 18.4624C23.7695 20.4839 21.9883 22.5713 20.2061 23.6221C17.6982 25.0981 14.3594 25.4707 11.5479 24.606C10.6104 24.3135 9 23.5688 9 23.436C9 23.396 9.48828 23.3428 10.082 23.3296C11.3232 23.3027 12.5635 22.957 13.6201 22.3457L14.333 21.9199L13.5137 21.6406C12.3525 21.2417 11.3096 20.3242 11.0459 19.46C10.9668 19.1807 10.9932 19.167 11.7324 19.167L12.498 19.1538L11.8506 18.8481C11.0859 18.4624 10.3857 17.811 10.043 17.146C9.79199 16.667 9.47559 15.457 9.56738 15.3638C9.59375 15.3242 9.87109 15.4038 10.1875 15.5103C11.0986 15.8428 11.2178 15.7627 10.6895 15.2046C9.69922 14.1938 9.39551 12.6909 9.87109 11.2681L10.0957 10.6299L10.9668 11.4941C12.749 13.2363 14.8477 14.2734 17.25 14.5796L17.9092 14.6592Z" fill="#FFFFFF" fill-opacity="1.000000" fill-rule="evenodd"/>
</svg>
